module gitlab.com/openflightmaps/go-ofmx

go 1.13

require (
	github.com/doublerebel/bellows v0.0.0-20160303004610-f177d92a03d3
	github.com/go-playground/universal-translator v0.17.0 // indirect
	github.com/leodido/go-urn v1.2.0 // indirect
	github.com/paulmach/go.geo v0.0.0-20180829195134-22b514266d33
	github.com/paulmach/go.geojson v1.4.0
	github.com/stretchr/testify v1.4.0
	golang.org/x/net v0.0.0-20200324143707-d3edc9973b7e
	gopkg.in/go-playground/assert.v1 v1.2.1 // indirect
	gopkg.in/go-playground/validator.v9 v9.31.0
)
